%YAML 1.1
%TAG !u! tag:unity3d.com,2011:
--- !u!1045 &1
EditorBuildSettings:
  m_ObjectHideFlags: 0
  serializedVersion: 2
  m_Scenes:
  - enabled: 1
    path: Assets/Escenas/SplashLogoEstudio.unity
    guid: 4ad47dab7e63143479bccc454749c5ad
  - enabled: 1
    path: Assets/Escenas/Disclaimer.unity
    guid: 198493330aa2c0c429ebfe25d3a35d76
  - enabled: 1
    path: Assets/Escenas/Menu.unity
    guid: 815f86fac9734194ea0771cc73bdfc2b
  - enabled: 1
    path: Assets/Escenas/CuartoHotel.unity
    guid: e9117d2de4856bf4ab7fe09f1ab81157
  - enabled: 1
    path: Assets/Escenas/Salir.unity
    guid: 6a8ce20efedd8cb4eadfc8e0f5204dbe
